Introduction to the Tidyverse - data+science
…
library(tidyverse)  # data science toolkit
library(magrittr)   # corresponding operators
library(covid19us)  # scrapes https://covidtracking.com/ API
library(ggsci)      # custom color palettes
library(ggpubr)     # publication-ready plots

Then, let’s load the complete longitudinal dataset and select the variables that will be relevant for our analysis.

states.data <- get_states_daily() %>%
    select(c('state','date','positive','negative','death','total_test_results'))

states.data

## # A tibble: 3,321 x 6
##    state date       positive negative death total_test_results
##    <chr> <date>        <int>    <int> <int>              <int>
##  1 AK    2020-05-03      368    21210     9              21578
##  2 AL    2020-05-03     7725    84775   290              92500
##  3 AR    2020-05-03     3431    49459    76              52890
##  4 AS    2020-05-03        0       57     0                 57
##  5 AZ    2020-05-03     8640    72479   362              81119
##  6 CA    2020-05-03    53616   662135  2215             715751
##  7 CO    2020-05-03    16225    63681   832              79906
##  8 CT    2020-05-03    29287    73206  2436             102493
##  9 DC    2020-05-03     5016    18086   251              23102
## 10 DE    2020-05-03     5208    18529   177              23737
## # … with 3,311 more rows

Additionally, we’re going to pull a csv file from https://worldpopulationreview.com/ that contains state-abbreviation pairs (e.g. CA, California) that we’ll use later to ‘beautify’ our plots.

states.abbrev <- read_csv('https://worldpopulationreview.com/static/states/abbr-name-list.csv')

states.abbrev

## # A tibble: 51 x 2
##    name                 abbreviation
##    <chr>                <chr>       
##  1 Alabama              AL          
##  2 Alaska               AK          
##  3 Arizona              AZ          
##  4 Arkansas             AR          
##  5 California           CA          
##  6 Colorado             CO          
##  7 Connecticut          CT          
##  8 Delaware             DE          
##  9 District Of Columbia DC          
## 10 Florida              FL          
## # … with 41 more rows

Lastly, from that same website I have downloaded the (projected) 2020 census estimates, which we’ll read in and use to standardize our data to tests per 100,000 residents.

states.population <- '../data/covid-tidyverse/covid.us.state.population.csv' %>%
    read_csv() %>%
    select(c('rank','State','Pop'))

states.population

## # A tibble: 52 x 3
##     rank State               Pop
##    <dbl> <chr>             <dbl>
##  1     1 California     39937489
##  2     2 Texas          29472295
##  3     3 Florida        21992985
##  4     4 New York       19440469
##  5     5 Pennsylvania   12820878
##  6     6 Illinois       12659682
##  7     7 Ohio           11747694
##  8     8 Georgia        10736059
##  9     9 North Carolina 10611862
## 10    10 Michigan       10045029
## # … with 42 more rows

Munge

To munge is to manipulate raw data. We’ll start by combining the three different datasets we have loaded to look at testing rates among the most populated states.

testing.data <- states.data %>%
    left_join(states.abbrev, by = c('state' = 'abbreviation')) %>%
    left_join(states.population, by = c('name' = 'State'))

# peeking at newly joined variables
testing.data %>%
    select(c('state','date','name','rank','Pop'))

## # A tibble: 3,321 x 5
##    state date       name                  rank      Pop
##    <chr> <date>     <chr>                <dbl>    <dbl>
##  1 AK    2020-05-03 Alaska                  49   734002
##  2 AL    2020-05-03 Alabama                 24  4908621
##  3 AR    2020-05-03 Arkansas                33  3038999
##  4 AS    2020-05-03 <NA>                    NA       NA
##  5 AZ    2020-05-03 Arizona                 14  7378494
##  6 CA    2020-05-03 California               1 39937489
##  7 CO    2020-05-03 Colorado                21  5845526
##  8 CT    2020-05-03 Connecticut             29  3563077
##  9 DC    2020-05-03 District Of Columbia    NA       NA
## 10 DE    2020-05-03 Delaware                46   982895
## # … with 3,311 more rows

Then we’ll use the lubridate package within the tidyverse to quickly split the dates into month and day components so we can look at data from the 9th of March.

testing.data %<>%
    mutate(month = lubridate::month(date)) %>%
    mutate(day = lubridate::day(date)) %>%
    filter(month >= 3) %>%
    filter(day >= 9)

testing.data %>%
    select(c('state','date','total_test_results','month','day'))

## # A tibble: 2,482 x 5
##    state date       total_test_results month   day
##    <chr> <date>                  <int> <dbl> <int>
##  1 AK    2020-04-30              19119     4    30
##  2 AL    2020-04-30              87196     4    30
##  3 AR    2020-04-30              48379     4    30
##  4 AS    2020-04-30                  3     4    30
##  5 AZ    2020-04-30              71786     4    30
##  6 CA    2020-04-30             625337     4    30
##  7 CO    2020-04-30              71059     4    30
##  8 CT    2020-04-30              97133     4    30
##  9 DC    2020-04-30              20079     4    30
## 10 DE    2020-04-30              21820     4    30
## # … with 2,472 more rows
…
