data+science/posts/tidyverse-covid-19/
…
Then, let’s load the complete longitudinal dataset, which defaults to a tibble and select the testing variables that will be relevant for our analysis.

states.data <- 'https://covidtracking.com/api/v1/states/daily.csv' %>%
    read_csv() %>%
    select(c('state','date','positive','negative','death','total')) 

states.data

## # A tibble: 3,937 x 6
##    state     date positive negative death   total
##    <chr>    <dbl>    <dbl>    <dbl> <dbl>   <dbl>
##  1 AK    20200514      387    31375    10   31762
##  2 AL    20200514    10968   131017   467  141985
##  3 AR    20200514     4236    71582    97   75818
##  4 AS    20200514        0      105     0     105
##  5 AZ    20200514    12674   121664   624  134338
##  6 CA    20200514    73164  1031487  3032 1104651
##  7 CO    20200514    20475    94044  1062  114519
##  8 CT    20200514    35464   114098  3219  149562
##  9 DC    20200514     6736    26263   358   32999
## 10 DE    20200514     7223    29634   260   36857
## # … with 3,927 more rows

Additionally, I have downloaded the (projected) 2020 census estimates of all 50 states + DC and Puerto Rico from https://worldpopulationreview.com, which we’ll read in and use to standardize our data to tests per 100,000 residents.

states.population <- 'data/covid.us.state.population.csv' %>%
    read_csv() %>%
    select(c('rank','State','Pop')) 

states.population

## # A tibble: 52 x 3
##     rank State               Pop
##    <dbl> <chr>             <dbl>
##  1     1 California     39937489
##  2     2 Texas          29472295
##  3     3 Florida        21992985
##  4     4 New York       19440469
##  5     5 Pennsylvania   12820878
##  6     6 Illinois       12659682
##  7     7 Ohio           11747694
##  8     8 Georgia        10736059
##  9     9 North Carolina 10611862
## 10    10 Michigan       10045029
## # … with 42 more rows

Lastly, we’re going to pull a csv directly from that website which contains state-abbreviation pairs (e.g. CA, California) that we’ll use later to ‘beautify’ our plots. The ‘of’ in District of Columbia on this last is capitalized, so we’ll manually change this to avoid a mismatch later. We’ll also add a row for Puerto Rico, since that abbreviation is weirdly missing.

states.abbrev <- 'https://worldpopulationreview.com/static/states/abbr-name-list.csv' %>%
    read_csv() %>%
    mutate(name = stringr::str_replace(name, 'Of', 'of')) %>%
    add_row(name = 'Puerto Rico', abbreviation = 'PR')

states.abbrev

## # A tibble: 52 x 2
##    name                 abbreviation
##    <chr>                <chr>       
##  1 Alabama              AL          
##  2 Alaska               AK          
##  3 Arizona              AZ          
##  4 Arkansas             AR          
##  5 California           CA          
##  6 Colorado             CO          
##  7 Connecticut          CT          
##  8 Delaware             DE          
##  9 District of Columbia DC          
## 10 Florida              FL          
## # … with 42 more rows
Munge

To munge is to manipulate raw data. We’ll start by combining the three different datasets we have loaded to look at testing rates among the most populated states.

raw.testing.data <- states.data %>%
    left_join(states.abbrev, by = c('state' = 'abbreviation')) %>%
    left_join(states.population, by = c('name' = 'State')) %>%
    rename(full_name = 'name') %>%
    filter(!is.na(full_name))

# peeking at newly joined variables
raw.testing.data %>%
    select(c('state','date','full_name','rank','Pop'))

## # A tibble: 3,697 x 5
##    state     date full_name             rank      Pop
##    <chr>    <dbl> <chr>                <dbl>    <dbl>
##  1 AK    20200514 Alaska                  49   734002
##  2 AL    20200514 Alabama                 24  4908621
##  3 AR    20200514 Arkansas                33  3038999
##  4 AZ    20200514 Arizona                 14  7378494
##  5 CA    20200514 California               1 39937489
##  6 CO    20200514 Colorado                21  5845526
##  7 CT    20200514 Connecticut             29  3563077
##  8 DC    20200514 District of Columbia    50   720687
##  9 DE    20200514 Delaware                46   982895
## 10 FL    20200514 Florida                  3 21992985
## # … with 3,687 more rows

Then we’ll use the lubridate package to quickly split the dates into month and day components so we can look at data from the 9th of March through the end of April. The month() and day() commands extract those elements respectively, while ymd() tells the package what the original date format is so it knows how to parse.

testing.data <- raw.testing.data %>%
    mutate_at(vars(date), ~ as_date(ymd(.))) %>%
    filter(date > '2020-03-09')

# peeking at new dates
testing.data %>%
    select(c('state','date','total'))

## # A tibble: 3,424 x 3
##    state date         total
##    <chr> <date>       <dbl>
##  1 AK    2020-05-14   31762
##  2 AL    2020-05-14  141985
##  3 AR    2020-05-14   75818
##  4 AZ    2020-05-14  134338
##  5 CA    2020-05-14 1104651
##  6 CO    2020-05-14  114519
##  7 CT    2020-05-14  149562
##  8 DC    2020-05-14   32999
##  9 DE    2020-05-14   36857
## 10 FL    2020-05-14  610065
## # … with 3,414 more rows
…
By default, our states are sorted alphabetically, but what if we wanted to sort them according to their testing rates?

As a quick console sidebar, let’s see which states have the highest testing rates.

testing.data %>%
    arrange(desc(tests.std))

## # A tibble: 3,424 x 6
##    full_name    date       tests.std deaths.std positive.std negative.std
##    <chr>        <date>         <dbl>      <dbl>        <dbl>        <dbl>
##  1 Rhode Island 2020-05-14     9620.       44.3        1138.        8482.
##  2 Rhode Island 2020-05-13     9272.       43.7        1121.        8151.
##  3 Rhode Island 2020-05-12     9017.       42.0        1100.        7918.
##  4 Rhode Island 2020-05-11     8837.       40.7        1084.        7753.
##  5 Rhode Island 2020-05-10     8636.       40.0        1067.        7569.
##  6 Rhode Island 2020-05-09     8315.       39.6        1040.        7274.
##  7 Rhode Island 2020-05-08     8073.       37.8        1021.        7053.
##  8 Rhode Island 2020-05-07     7794.       36.7         997.        6797.
##  9 Rhode Island 2020-05-06     7515.       35.0         966.        6549.
## 10 Rhode Island 2020-05-05     7237.       33.6         940.        6297.
## # … with 3,414 more rows

In order to get a better overview and ignore the date column, we can group our row observations by state and then nest the remaining data, which will leave us with a state column that is sorted by the standardized testing rate in descending order.

testing.data %>%
    arrange(desc(tests.std)) %>%
    group_by(full_name) %>%
    nest()

## # A tibble: 52 x 2
## # Groups:   full_name [52]
##    full_name            data             
##    <chr>                <list>           
##  1 Rhode Island         <tibble [66 × 5]>
##  2 New York             <tibble [66 × 5]>
##  3 North Dakota         <tibble [66 × 5]>
##  4 Massachusetts        <tibble [64 × 5]>
##  5 New Mexico           <tibble [66 × 5]>
##  6 Louisiana            <tibble [66 × 5]>
##  7 New Jersey           <tibble [66 × 5]>
##  8 Utah                 <tibble [66 × 5]>
##  9 District of Columbia <tibble [66 × 5]>
## 10 Tennessee            <tibble [66 × 5]>
## # … with 42 more rows

Visualize

Our testing.data is now nice and tidy, but if you’re familiar with ggplot2 then you proabably already know that our data is not quite ‘plot’ tidy. This is not an official term, but I find it useful because it reminds me that data almost always needs to be tidied in specific ways before it can be easily plotted.

Right now it is difficult to plot our four different testing variables on the same plot, since they’re in four different columns which would require four different geom_point() commands, each with a different y-axis variable. In order for us to have plot tidy data, we want to have a tibble with only three data columns: our independent (x) and dependent (y) variables, as well as time (date) since this is longitudinal.

For this the dplyr::pivot_longer() function will be essential. We’ll tell it to ignore the state and date columns, while combining our four test rate columns into two new ones: std.metric and std.value.

testing.data %>%
    pivot_longer(cols = -c('date','full_name'),
                 names_to = 'std.metric',
                 values_to = 'std.value')

## # A tibble: 13,696 x 4
##    full_name date       std.metric   std.value
##    <chr>     <date>     <chr>            <dbl>
##  1 Alaska    2020-05-14 tests.std      4327.  
##  2 Alaska    2020-05-14 deaths.std        1.36
##  3 Alaska    2020-05-14 positive.std     52.7 
##  4 Alaska    2020-05-14 negative.std   4275.  
##  5 Alabama   2020-05-14 tests.std      2893.  
##  6 Alabama   2020-05-14 deaths.std        9.51
##  7 Alabama   2020-05-14 positive.std    223.  
##  8 Alabama   2020-05-14 negative.std   2669.  
##  9 Arkansas  2020-05-14 tests.std      2495.  
## 10 Arkansas  2020-05-14 deaths.std        3.19
## # … with 13,686 more rows
…
Once I start making “plot tidy” manipulations I create a new plot.data tibble That way, I have my testing.data tibble available for console sidebars to help me refine the information in plot.data according to what I want ggplot2 to use and display.

plot.data <- testing.data %>%
    group_by(full_name) %>%
    arrange(desc(tests.std)) %>%
    nest() %>%
    ungroup() %>%
    mutate(ordered = 1:n()) %>%
    unnest(data)

plot.data %>%
    select(c('full_name','tests.std','ordered'))

## # A tibble: 3,424 x 3
##    full_name    tests.std ordered
##    <chr>            <dbl>   <int>
##  1 Rhode Island     9620.       1
##  2 Rhode Island     9272.       1
##  3 Rhode Island     9017.       1
##  4 Rhode Island     8837.       1
##  5 Rhode Island     8636.       1
##  6 Rhode Island     8315.       1
##  7 Rhode Island     8073.       1
##  8 Rhode Island     7794.       1
##  9 Rhode Island     7515.       1
## 10 Rhode Island     7237.       1
## # … with 3,414 more rows

Now we have to collapse our four testing variables like we did earlier but didn’t save. We’ll use the same command we did above, except we will also include our new ordered column in the excluded variables parameter, and we’ll be calling it on plot.data this time.

plot.data %<>%
    pivot_longer(cols = -c('date','full_name','ordered'),
                 names_to = 'std.metric',
                 values_to = 'std.value')

plot.data

## # A tibble: 13,696 x 5
##    full_name    date       ordered std.metric   std.value
##    <chr>        <date>       <int> <chr>            <dbl>
##  1 Rhode Island 2020-05-14       1 tests.std       9620. 
##  2 Rhode Island 2020-05-14       1 deaths.std        44.3
##  3 Rhode Island 2020-05-14       1 positive.std    1138. 
##  4 Rhode Island 2020-05-14       1 negative.std    8482. 
##  5 Rhode Island 2020-05-13       1 tests.std       9272. 
##  6 Rhode Island 2020-05-13       1 deaths.std        43.7
##  7 Rhode Island 2020-05-13       1 positive.std    1121. 
##  8 Rhode Island 2020-05-13       1 negative.std    8151. 
##  9 Rhode Island 2020-05-12       1 tests.std       9017. 
## 10 Rhode Island 2020-05-12       1 deaths.std        42.0
## # … with 13,686 more rows
Finally, we’ll beautify plot.data and order our std.metric variable and change the names to be a bit more intuitive for the final plots.

plot.data %<>%
    mutate_at(vars(std.metric), ~ fct_relevel(., 'tests.std','negative.std',
                                              'positive.std','deaths.std')) %>%
    mutate_at(vars(std.metric), ~ fct_recode(., 
                                              `Total Test Results` = 'tests.std',
                                             `Negative Tests` = 'negative.std',
                                              `Positive Tests` = 'positive.std',
                                              `Deaths` = 'deaths.std')) %>%
    mutate_at(vars(full_name), ~ fct_reorder(., ordered))

plot.data

## # A tibble: 13,696 x 5
##    full_name    date       ordered std.metric         std.value
##    <fct>        <date>       <int> <fct>                  <dbl>
##  1 Rhode Island 2020-05-14       1 Total Test Results    9620. 
##  2 Rhode Island 2020-05-14       1 Deaths                  44.3
##  3 Rhode Island 2020-05-14       1 Positive Tests        1138. 
##  4 Rhode Island 2020-05-14       1 Negative Tests        8482. 
##  5 Rhode Island 2020-05-13       1 Total Test Results    9272. 
##  6 Rhode Island 2020-05-13       1 Deaths                  43.7
##  7 Rhode Island 2020-05-13       1 Positive Tests        1121. 
##  8 Rhode Island 2020-05-13       1 Negative Tests        8151. 
##  9 Rhode Island 2020-05-12       1 Total Test Results    9017. 
## 10 Rhode Island 2020-05-12       1 Deaths                  42.0
## # … with 13,686 more rows
…
