…
## Warning: package 'covid19us' was built under R version 3.6.2

library(ggsci)      # custom color palettes
library(ggpubr)     # publication-ready plots
library(knitr)      # create docs of text + code

 Then, let’s load the complete longitudinal dataset and select the variables that will be relevant for our analysis. Additionally, we’re going to pull a csv file from https://worldpopulationreview.com/ that contains state-abbreviation pairs (e.g. CA, California) that we’ll use later to ‘beautify’ our plots. Lastly, from that same website I have downloaded the (projected) 2020 census estimates, which we’ll read in and use to standardize our data to e.g. tests per 100,000 residents.

states.data <- get_states_daily() %>%
    select(c('state','date','positive','negative','death','total_test_results'))

states.data

## # A tibble: 2,937 x 6
##    state date       positive negative death total_test_results
##    <chr> <date>        <int>    <int> <int>              <int>
##  1 AK    2020-04-26      341    15836     9              16177
##  2 AL    2020-04-26     6270    67281   216              73551
##  3 AR    2020-04-26     2941    36528    49              39469
##  4 AS    2020-04-26        0        3     0                  3
##  5 AZ    2020-04-26     6526    58285   275              64811
##  6 CA    2020-04-26    42164   483920  1710             526084
##  7 CO    2020-04-26    12968    46823   672              59791
##  8 CT    2020-04-26    25269    54542  1924              79811
##  9 DC    2020-04-26     3841    14227   178              18068
## 10 DE    2020-04-26     4034    15215   120              19249
## # … with 2,927 more rows
…
