…
library(tidyverse)  # data science toolkit
library(magrittr)   # corresponding operators
library(covid19us)  # scrapes https://covidtracking.com/ API
library(ggsci)      # custom color palettes
library(ggpubr)     # publication-ready plots

 Then, let’s load the complete longitudinal dataset and select the variables that will be relevant for our analysis.

states.data <- get_states_daily() %>%
    select(c('state','date','positive','negative','death','total_test_results'))

states.data

## # A tibble: 2,929 x 6
##    state date       positive negative death total_test_results
##    <chr> <date>        <int>    <int> <int>              <int>
##  1 AK    2020-04-26      341    15836     9              16177
##  2 AL    2020-04-26     6270    67281   216              73551
##  3 AR    2020-04-26     2941    36528    49              39469
##  4 AS    2020-04-26        0        3     0                  3
##  5 AZ    2020-04-26     6526    58285   275              64811
##  6 CA    2020-04-26    42164   483920  1710             526084
##  7 CO    2020-04-26    12968    46823   672              59791
##  8 CT    2020-04-26    25269    54542  1924              79811
##  9 DC    2020-04-26     3841    14227   178              18068
## 10 DE    2020-04-26     4034    15215   120              19249
## # … with 2,919 more rows

Additionally, we’re going to pull a csv file from https://worldpopulationreview.com/ that contains state-abbreviation pairs (e.g. CA, California) that we’ll use later to ‘beautify’ our plots.

states.abbrev <- read_csv('https://worldpopulationreview.com/static/states/abbr-name-list.csv')

states.abbrev

## # A tibble: 51 x 2
##    name                 abbreviation
##    <chr>                <chr>       
##  1 Alabama              AL          
##  2 Alaska               AK          
##  3 Arizona              AZ          
##  4 Arkansas             AR          
##  5 California           CA          
##  6 Colorado             CO          
##  7 Connecticut          CT          
##  8 Delaware             DE          
##  9 District Of Columbia DC          
## 10 Florida              FL          
## # … with 41 more rows

Lastly, from that same website I have downloaded the (projected) 2020 census estimates, which we’ll read in and use to standardize our data to e.g. tests per 100,000 residents.

states.population <- '../data/covid-tidyverse/covid.us.state.population.csv' %>%
    read_csv() %>%
    select(c('rank','State','Pop'))

states.population

## # A tibble: 52 x 3
##     rank State               Pop
##    <dbl> <chr>             <dbl>
##  1     1 California     39937489
##  2     2 Texas          29472295
##  3     3 Florida        21992985
##  4     4 New York       19440469
##  5     5 Pennsylvania   12820878
##  6     6 Illinois       12659682
##  7     7 Ohio           11747694
##  8     8 Georgia        10736059
##  9     9 North Carolina 10611862
## 10    10 Michigan       10045029
## # … with 42 more rows
Munge

To munge is to manipulate raw data. We’ll start by combining the three different datasets we have loaded to look at testing rates among the most populated states.

testing.data <- states.data %>%
        # add the longform name of each state for later plots
    left_join(states.abbrev, by = c('state' = 'abbreviation')) %>%
        # also that we can add the population for calculations
    left_join(states.population, by = c('name' = 'State'))

testing.data %>%
        # peeking at newly joined variables
    select(c('state','date','name','rank','Pop'))

## # A tibble: 2,929 x 5
##    state date       name                  rank      Pop
##    <chr> <date>     <chr>                <dbl>    <dbl>
##  1 AK    2020-04-26 Alaska                  49   734002
##  2 AL    2020-04-26 Alabama                 24  4908621
##  3 AR    2020-04-26 Arkansas                33  3038999
##  4 AS    2020-04-26 <NA>                    NA       NA
##  5 AZ    2020-04-26 Arizona                 14  7378494
##  6 CA    2020-04-26 California               1 39937489
##  7 CO    2020-04-26 Colorado                21  5845526
##  8 CT    2020-04-26 Connecticut             29  3563077
##  9 DC    2020-04-26 District Of Columbia    NA       NA
## 10 DE    2020-04-26 Delaware                46   982895
## # … with 2,919 more rows

Then we’ll use the lubridate package within the tidyverse to quickly split the date into month # and day # components so we can look at data from the 9th of March onward.

testing.data %<>%
    mutate(month = lubridate::month(date)) %>%
    mutate(day = lubridate::day(date)) %>%
    # filter for data after 9 march
    filter(month >= 3) %>%
    filter(day >= 9)

testing.data %>%
    select(c('state','date','total_test_results','month','day'))

## # A tibble: 2,258 x 5
##    state date       total_test_results month   day
##    <chr> <date>                  <int> <dbl> <int>
##  1 AK    2020-04-26              16177     4    26
##  2 AL    2020-04-26              73551     4    26
##  3 AR    2020-04-26              39469     4    26
##  4 AS    2020-04-26                  3     4    26
##  5 AZ    2020-04-26              64811     4    26
##  6 CA    2020-04-26             526084     4    26
##  7 CO    2020-04-26              59791     4    26
##  8 CT    2020-04-26              79811     4    26
##  9 DC    2020-04-26              18068     4    26
## 10 DE    2020-04-26              19249     4    26
## # … with 2,248 more rows
…
