…
library(tidyverse)
library(magrittr)
library(ggsci) 
library(ggrepel)
library(ggpubr)

Alpha Diversity

Then, I’ll read in the data.

meta.tbl <- readRDS(file = 'data/meta.tbl.rds')

meta.tbl

## # A tibble: 329 x 3
##    Shannon Cohort  Phenotype
##      <dbl> <chr>   <chr>    
##  1    3.53 Collect Control  
##  2    3.87 Collect Control  
##  3    3.35 Collect Control  
##  4    3.73 Collect Control  
##  5    2.99 Collect Control  
##  6    2.92 Collect Control  
##  7    2.93 Collect Control  
##  8    3.00 Collect Control  
##  9    3.60 Collect Control  
## 10    3.78 Collect Control  
## # … with 319 more rows
…
plot.data

## # A tibble: 329 x 3
##    Shannon Cohort  Phenotype
##      <dbl> <fct>   <fct>    
##  1    3.53 Collect Control  
##  2    3.87 Collect Control  
##  3    3.35 Collect Control  
##  4    3.73 Collect Control  
##  5    2.99 Collect Control  
##  6    2.92 Collect Control  
##  7    2.93 Collect Control  
##  8    3.00 Collect Control  
##  9    3.60 Collect Control  
## 10    3.78 Collect Control  
## # … with 319 more rows
…
Beta Diversity

taxa.tbl <- readRDS(file = 'data/taxa.tbl.rds')

taxa.tbl

## # A tibble: 329 x 160
##    Cohort `A2 (genus)` `Acidaminococcu… `Actinomyces (g… `Agathobacter (…
##    <chr>         <dbl>            <dbl>            <dbl>            <dbl>
##  1 AAU        0                  0                     0                0
##  2 AAU        0                  0                     0                0
##  3 AAU        0                  0                     0                0
##  4 AAU        0                  0                     0                0
##  5 AAU        0                  0                     0                0
##  6 AAU        0                  0                     0                0
##  7 AAU        0.000432           0                     0                0
##  8 AAU        0                  0.0233                0                0
##  9 AAU        0.000432           0                     0                0
## 10 AAU        0                  0                     0                0
## # … with 319 more rows, and 155 more variables: `Akkermansia (genus)` <dbl>,
## #   `Alistipes (genus)` <dbl>, `Allisonella (genus)` <dbl>, `Allobacillus
## #   (genus)` <dbl>, `Alloprevotella (genus)` <dbl>, `Anaerofilum
## #   (genus)` <dbl>, `Anaeroplasma (genus)` <dbl>, `Anaerostipes (genus)` <dbl>,
## #   `Anaerotruncus (genus)` <dbl>, `Atopobium (genus)` <dbl>, `Bacteroides
## #   (genus)` <dbl>, `Barnesiella (genus)` <dbl>, `Bifidobacterium
## #   (genus)` <dbl>, `Bilophila (genus)` <dbl>, `Blautia (genus)` <dbl>, `Bosea
## #   (genus)` <dbl>, `Butyricicoccus (genus)` <dbl>, `Butyricimonas
## #   (genus)` <dbl>, `Butyrivibrio (genus)` <dbl>, `CAG-352 (genus)` <dbl>,
…
head(taxa.dist)

## [1] 0.4824903 0.2733564 0.3601383 0.3484652 0.3290071 0.4796713

taxa.pcoa <- taxa.dist %>%
    cmdscale(k = 2) %>%
    as_tibble(names_repair = 'check_unique') %>%
    add_column(Cohort = taxa.tbl$Cohort,
               .before = 1)

taxa.pcoa

## # A tibble: 329 x 3
##    Cohort      V1       V2
##    <chr>    <dbl>    <dbl>
##  1 AAU    -0.0769  0.125  
##  2 AAU     0.173  -0.0779 
##  3 AAU    -0.216   0.0348 
##  4 AAU    -0.0196  0.0102 
##  5 AAU    -0.219   0.0796 
##  6 AAU    -0.204  -0.00534
##  7 AAU    -0.0754 -0.184  
##  8 AAU     0.0589  0.00364
##  9 AAU    -0.141  -0.0421 
## 10 AAU    -0.245   0.188  
## # … with 319 more rows
…
plot.data <- taxa.pcoa %>%
    add_column(Pt.Type = 'Individual') %>%
    bind_rows(pcoa.centroids) %>%
    mutate_at(vars(Cohort), ~ fct_relevel(., 'SpA','IBD','AAU','Collect')) 

plot.data

## # A tibble: 333 x 4
##    Cohort      V1       V2 Pt.Type   
##    <fct>    <dbl>    <dbl> <chr>     
##  1 AAU    -0.0769  0.125   Individual
##  2 AAU     0.173  -0.0779  Individual
##  3 AAU    -0.216   0.0348  Individual
##  4 AAU    -0.0196  0.0102  Individual
##  5 AAU    -0.219   0.0796  Individual
##  6 AAU    -0.204  -0.00534 Individual
##  7 AAU    -0.0754 -0.184   Individual
##  8 AAU     0.0589  0.00364 Individual
##  9 AAU    -0.141  -0.0421  Individual
## 10 AAU    -0.245   0.188   Individual
## # … with 323 more rows
…
