data+science/posts/tidyverse-gut-diversity/
…
Alpha Diversity Boxplots

The abundance tables I’m going to work with were generated from raw 16S reads using LoTuS and rarefied using the rarefaction toolkit (rtk), which calculates per-sample diversity metrics so we don’t have to do that, and I’ll just be reading in the anonymized metadata table instead.

There are packages for calculating diversity indices in R from an abundance table too if that’s needed, for example phyloseq or microbiome.

The richness is an OTU count (how many genera in a sample), while the Shannon entropy is also informed by abundances and yields a measure of how evenly OTUs are distributed across a sample; a high Shannon entropy implies that OTUs have similar abundance levels, while a low entropy indicates that OTUs dominate over others.

meta.tbl <- readRDS(file = 'data/meta.tbl.rds')

meta.tbl

## # A tibble: 329 x 4
##    Cohort Phenotype Shannon Richness
##    <chr>  <chr>       <dbl>    <dbl>
##  1 AAU    SpA+AAU      2.31       43
##  2 AAU    SpA+AAU      2.43       49
##  3 AAU    SpA+AAU      2.37       45
##  4 AAU    AAU          2.37       39
##  5 AAU    SpA+AAU      2.22       37
##  6 AAU    AAU          2.65       70
##  7 AAU    SpA+AAU      2.73       47
##  8 AAU    SpA+AAU      2.47       46
##  9 AAU    SpA+AAU      2.72       58
## 10 AAU    AAU          1.60       34
## # … with 319 more rows
…
plot.data

## # A tibble: 329 x 4
##    Cohort  Phenotype Shannon Richness
##    <fct>   <fct>       <dbl>    <dbl>
##  1 Uveitis SpA+AAU      2.31       43
##  2 Uveitis SpA+AAU      2.43       49
##  3 Uveitis SpA+AAU      2.37       45
##  4 Uveitis AAU          2.37       39
##  5 Uveitis SpA+AAU      2.22       37
##  6 Uveitis AAU          2.65       70
##  7 Uveitis SpA+AAU      2.73       47
##  8 Uveitis SpA+AAU      2.47       46
##  9 Uveitis SpA+AAU      2.72       58
## 10 Uveitis AAU          1.60       34
## # … with 319 more rows
…
Beta Diversity + PCoA

The beta diversity is a measure of species diversity between different ecosystems, here different patient microbiota. The Bray-Curtis dissimilarity is a semimetric statistic bounded between 0 and 1 (0 = same species in same abundances, 1 = samples do not share any species) quantifying the pairwise compositional overlap between samples.

Once dissimilarities have been computed, a PCoA ordination creates an n-dimensional (usually n = 2) mapping of the dissimilarities between samples such that the calculated dissimilarity between samples is preserved and able to be visualized in a lower-dimensional space.

For this, I’ll read in the actual abundance table which has the Cohort variable as a label in the first column.

taxa.tbl <- readRDS(file = 'data/taxa.tbl.rds')

taxa.tbl

## # A tibble: 329 x 160
##    Cohort `A2 (genus)` `Acidaminococcu… `Actinomyces (g… `Agathobacter (…
##    <chr>         <dbl>            <dbl>            <dbl>            <dbl>
##  1 AAU        0                  0                     0                0
##  2 AAU        0                  0                     0                0
##  3 AAU        0                  0                     0                0
##  4 AAU        0                  0                     0                0
##  5 AAU        0                  0                     0                0
##  6 AAU        0                  0                     0                0
##  7 AAU        0.000432           0                     0                0
##  8 AAU        0                  0.0233                0                0
##  9 AAU        0.000432           0                     0                0
## 10 AAU        0                  0                     0                0
## # … with 319 more rows, and 155 more variables: `Akkermansia (genus)` <dbl>,
## #   `Alistipes (genus)` <dbl>, `Allisonella (genus)` <dbl>, `Allobacillus
## #   (genus)` <dbl>, `Alloprevotella (genus)` <dbl>, `Anaerofilum
## #   (genus)` <dbl>, `Anaeroplasma (genus)` <dbl>, `Anaerostipes (genus)` <dbl>,
## #   `Anaerotruncus (genus)` <dbl>, `Atopobium (genus)` <dbl>, `Bacteroides
## #   (genus)` <dbl>, `Barnesiella (genus)` <dbl>, `Bifidobacterium
## #   (genus)` <dbl>, `Bilophila (genus)` <dbl>, `Blautia (genus)` <dbl>, `Bosea
## #   (genus)` <dbl>, `Butyricicoccus (genus)` <dbl>, `Butyricimonas
## #   (genus)` <dbl>, `Butyrivibrio (genus)` <dbl>, `CAG-352 (genus)` <dbl>,
…
head(taxa.dist)

## [1] 0.4824903 0.2733564 0.3601383 0.3484652 0.3290071 0.4796713

From that, we can use the cmdscale() function from the stats package to obtain the point coordinates in PCoA space. We’ll add the Cohort labels back, since we’ll want to use them to distinguish points in our visualization.

taxa.pcoa <- taxa.dist %>%
    stats::cmdscale(k = 2) %>%
    as_tibble(names_repair = 'check_unique') %>%
    add_column(Cohort = taxa.tbl$Cohort,
               .before = 1)

taxa.pcoa

## # A tibble: 329 x 3
##    Cohort      V1       V2
##    <chr>    <dbl>    <dbl>
##  1 AAU    -0.0769  0.125  
##  2 AAU     0.173  -0.0779 
##  3 AAU    -0.216   0.0348 
##  4 AAU    -0.0196  0.0102 
##  5 AAU    -0.219   0.0796 
##  6 AAU    -0.204  -0.00534
##  7 AAU    -0.0754 -0.184  
##  8 AAU     0.0589  0.00364
##  9 AAU    -0.141  -0.0421 
## 10 AAU    -0.245   0.188  
## # … with 319 more rows
…
There isn’t much to do to prepare this data for plotting, but we do want to add the centroids above to the taxa.pcoa values we got earlier. Additionally, since we added a Pt.Type variable to the centroids tibble, we’ll want to do the same for our individual coordinates before we can use the bind_rows() command. Just as with the alpha diversity plots, I’m using fct_relevel() to order the Cohort variable how I want it to appear in the final legend.

plot.data <- taxa.pcoa %>%
    add_column(Pt.Type = 'Individual') %>%
    bind_rows(pcoa.centroids) %>%
    mutate_at(vars(Cohort), ~ fct_relevel(., 'SpA','IBD','AAU','Collect')) 

plot.data

## # A tibble: 333 x 4
##    Cohort      V1       V2 Pt.Type   
##    <fct>    <dbl>    <dbl> <chr>     
##  1 AAU    -0.0769  0.125   Individual
##  2 AAU     0.173  -0.0779  Individual
##  3 AAU    -0.216   0.0348  Individual
##  4 AAU    -0.0196  0.0102  Individual
##  5 AAU    -0.219   0.0796  Individual
##  6 AAU    -0.204  -0.00534 Individual
##  7 AAU    -0.0754 -0.184   Individual
##  8 AAU     0.0589  0.00364 Individual
##  9 AAU    -0.141  -0.0421  Individual
## 10 AAU    -0.245   0.188   Individual
## # … with 323 more rows
…
